\relax 
\providecommand\hyper@newdestlabel[2]{}
\providecommand\babel@aux[2]{}
\@nameuse{bbl@beforestart}
\providecommand\HyperFirstAtBeginDocument{\AtBeginDocument}
\HyperFirstAtBeginDocument{\ifx\hyper@anchor\@undefined
\global\let\oldcontentsline\contentsline
\gdef\contentsline#1#2#3#4{\oldcontentsline{#1}{#2}{#3}}
\global\let\oldnewlabel\newlabel
\gdef\newlabel#1#2{\newlabelxx{#1}#2}
\gdef\newlabelxx#1#2#3#4#5#6{\oldnewlabel{#1}{{#2}{#3}}}
\AtEndDocument{\ifx\hyper@anchor\@undefined
\let\contentsline\oldcontentsline
\let\newlabel\oldnewlabel
\fi}
\fi}
\global\let\hyper@last\relax 
\gdef\HyperFirstAtBeginDocument#1{#1}
\providecommand\HyField@AuxAddToFields[1]{}
\providecommand\HyField@AuxAddToCoFields[2]{}
\providecommand \oddpage@label [2]{}
\babel@aux{english}{}
\@writefile{toc}{\contentsline {chapter}{\numberline {1}Digital arithmetic assignement}{1}{chapter.1}\protected@file@percent }
\@writefile{lof}{\addvspace {10\p@ }}
\@writefile{lot}{\addvspace {10\p@ }}
\@writefile{loa}{\addvspace {10\p@ }}
\@writefile{toc}{\contentsline {section}{\numberline {1.1}Digital arithmetic and logic synthesis}{1}{section.1.1}\protected@file@percent }
\@writefile{lot}{\contentsline {table}{\numberline {1.1}{\ignorespaces Results of the synthesis of different implementations of the significand multiplier\relax }}{1}{table.caption.2}\protected@file@percent }
\providecommand*\caption@xref[2]{\@setref\relax\@undefined{#1}}
\newlabel{tab:tab1}{{1.1}{1}{Results of the synthesis of different implementations of the significand multiplier\relax }{table.caption.2}{}}
\@writefile{toc}{\contentsline {section}{\numberline {1.2}Fine-grain Pipelining and optimization}{2}{section.1.2}\protected@file@percent }
\@writefile{lot}{\contentsline {table}{\numberline {1.2}{\ignorespaces Results of different optimization commands\relax }}{2}{table.caption.3}\protected@file@percent }
\newlabel{tab:tab2}{{1.2}{2}{Results of different optimization commands\relax }{table.caption.3}{}}
\@writefile{toc}{\contentsline {chapter}{\numberline {2}Implementation of a Booth multiplier}{3}{chapter.2}\protected@file@percent }
\@writefile{lof}{\addvspace {10\p@ }}
\@writefile{lot}{\addvspace {10\p@ }}
\@writefile{loa}{\addvspace {10\p@ }}
\newlabel{chap2}{{2}{3}{Implementation of a Booth multiplier}{chapter.2}{}}
\@writefile{loa}{\contentsline {algocf}{\numberline {1}{\ignorespaces Dadda multiplier reduction schema\relax }}{3}{algocf.1}\protected@file@percent }
\newlabel{alg:1}{{1}{3}{Implementation of a Booth multiplier}{algocf.1}{}}
\@writefile{loa}{\contentsline {algocf}{\numberline {2}{\ignorespaces Verilog code generation schema\relax }}{4}{algocf.2}\protected@file@percent }
\newlabel{alg:2}{{2}{4}{Implementation of a Booth multiplier}{algocf.2}{}}
\@writefile{lol}{\contentsline {lstlisting}{./chapters/files/setColumns.txt}{4}{lstlisting.2.-1}\protected@file@percent }
\@writefile{lof}{\contentsline {figure}{\numberline {2.1}{\ignorespaces Sign extension for the Booth multiplier\relax }}{5}{figure.caption.6}\protected@file@percent }
\newlabel{fig:sign_ext}{{2.1}{5}{Sign extension for the Booth multiplier\relax }{figure.caption.6}{}}
\@writefile{lol}{\contentsline {lstlisting}{./chapters/files/dadda\textunderscore reduction.txt}{6}{lstlisting.2.-2}\protected@file@percent }
\@writefile{lol}{\contentsline {lstlisting}{./chapters/files/set\textunderscore dadda\textunderscore adders.txt}{6}{lstlisting.2.-3}\protected@file@percent }
\@writefile{toc}{\contentsline {chapter}{\numberline {3}Results, Comparisons and Conclusions}{8}{chapter.3}\protected@file@percent }
\@writefile{lof}{\addvspace {10\p@ }}
\@writefile{lot}{\addvspace {10\p@ }}
\@writefile{loa}{\addvspace {10\p@ }}
\newlabel{chap3}{{3}{8}{Results, Comparisons and Conclusions}{chapter.3}{}}
\@writefile{lot}{\contentsline {table}{\numberline {3.1}{\ignorespaces Comparison of synthesis results for all architectures\relax }}{8}{table.caption.7}\protected@file@percent }
\newlabel{tab:results}{{3.1}{8}{Comparison of synthesis results for all architectures\relax }{table.caption.7}{}}
\@writefile{toc}{\contentsline {section}{\numberline {3.1}Comparisons}{8}{section.3.1}\protected@file@percent }
\@writefile{toc}{\contentsline {subsection}{\numberline {3.1.1}Multiplier Implementation}{8}{subsection.3.1.1}\protected@file@percent }
\@writefile{lof}{\contentsline {figure}{\numberline {3.1}{\ignorespaces Comparison between different implementations of the multiplier\relax }}{9}{figure.caption.8}\protected@file@percent }
\newlabel{fig:graph1}{{3.1}{9}{Comparison between different implementations of the multiplier\relax }{figure.caption.8}{}}
\@writefile{toc}{\contentsline {subsection}{\numberline {3.1.2}Impact of the optimization commands}{9}{subsection.3.1.2}\protected@file@percent }
\@writefile{toc}{\contentsline {subsection}{\numberline {3.1.3}Optimization of the Booth multiplier implementation}{9}{subsection.3.1.3}\protected@file@percent }
\@writefile{lof}{\contentsline {figure}{\numberline {3.2}{\ignorespaces Comparison between different optimization commands\relax }}{10}{figure.caption.9}\protected@file@percent }
\newlabel{fig:graph2}{{3.2}{10}{Comparison between different optimization commands\relax }{figure.caption.9}{}}
\@writefile{lof}{\contentsline {figure}{\numberline {3.3}{\ignorespaces Comparison between different optimization commands in the Booth multiplier\relax }}{10}{figure.caption.10}\protected@file@percent }
\newlabel{fig:graph3}{{3.3}{10}{Comparison between different optimization commands in the Booth multiplier\relax }{figure.caption.10}{}}
