 
****************************************
Report : area
Design : FPmul
Version: O-2018.06-SP4
Date   : Fri Nov 20 01:57:01 2020
****************************************

Library(s) Used:

    NangateOpenCellLibrary (File: /software/dk/nangate45/synopsys/NangateOpenCellLibrary_typical_ecsm_nowlm.db)

Number of ports:                           97
Number of nets:                          2687
Number of cells:                         2355
Number of combinational cells:           2071
Number of sequential cells:               283
Number of macros/black boxes:               0
Number of buf/inv:                        239
Number of references:                      36

Combinational area:               3027.345993
Buf/Inv area:                      164.920000
Noncombinational area:            1281.321954
Macro/Black Box area:                0.000000
Net Interconnect area:      undefined  (Wire load has zero net area)

Total cell area:                  4308.667947
Total area:                 undefined
1
