Information: Updating design information... (UID-85)
 
****************************************
Report : timing
        -path full
        -delay max
        -max_paths 1
Design : FPmul
Version: O-2018.06-SP4
Date   : Thu Dec  3 11:58:42 2020
****************************************

Operating Conditions: typical   Library: NangateOpenCellLibrary
Wire Load Model Mode: top

  Startpoint: I1/A_SIG_reg[9]
              (rising edge-triggered flip-flop clocked by MY_CLK)
  Endpoint: I2/SIG_in_1_reg[25]
            (rising edge-triggered flip-flop clocked by MY_CLK)
  Path Group: MY_CLK
  Path Type: max

  Des/Clust/Port     Wire Load Model       Library
  ------------------------------------------------
  FPmul              5K_hvratio_1_1        NangateOpenCellLibrary

  Point                                    Incr       Path
  -----------------------------------------------------------
  clock MY_CLK (rise edge)                 0.00       0.00
  clock network delay (ideal)              0.00       0.00
  I1/A_SIG_reg[9]/CK (DFF_X1)              0.00       0.00 r
  I1/A_SIG_reg[9]/QN (DFF_X1)              0.07       0.07 f
  U2315/ZN (INV_X1)                        0.04       0.11 r
  U2760/ZN (NAND2_X1)                      0.03       0.14 f
  U2761/ZN (NOR2_X1)                       0.05       0.19 r
  U2762/Z (BUF_X2)                         0.06       0.26 r
  U2889/ZN (NAND2_X1)                      0.04       0.29 f
  U2891/ZN (NAND4_X1)                      0.04       0.33 r
  U3501/ZN (XNOR2_X1)                      0.06       0.40 r
  U2670/ZN (XNOR2_X1)                      0.06       0.46 r
  U3609/ZN (XNOR2_X1)                      0.06       0.52 r
  U3610/ZN (XNOR2_X1)                      0.07       0.59 r
  U4897/ZN (OAI21_X1)                      0.04       0.63 f
  U4898/ZN (OAI21_X1)                      0.04       0.67 r
  intadd_2/U4/S (FA_X1)                    0.12       0.79 f
  intadd_7/U3/S (FA_X1)                    0.14       0.92 r
  U3619/ZN (INV_X1)                        0.03       0.95 f
  U3620/ZN (XNOR2_X1)                      0.06       1.01 f
  U1864/ZN (NOR2_X2)                       0.05       1.06 r
  U4250/ZN (OAI21_X1)                      0.04       1.10 f
  U4254/ZN (AOI21_X1)                      0.05       1.14 r
  U4262/ZN (OAI21_X1)                      0.04       1.18 f
  U2531/ZN (AOI21_X2)                      0.07       1.26 r
  U2550/ZN (OAI211_X1)                     0.05       1.30 f
  U2615/ZN (AOI21_X1)                      0.05       1.35 r
  U2726/ZN (XNOR2_X1)                      0.06       1.41 r
  I2/SIG_in_1_reg[25]/D (DFF_X1)           0.01       1.42 r
  data arrival time                                   1.42

  clock MY_CLK (rise edge)                 1.52       1.52
  clock network delay (ideal)              0.00       1.52
  clock uncertainty                       -0.07       1.45
  I2/SIG_in_1_reg[25]/CK (DFF_X1)          0.00       1.45 r
  library setup time                      -0.03       1.42
  data required time                                  1.42
  -----------------------------------------------------------
  data required time                                  1.42
  data arrival time                                  -1.42
  -----------------------------------------------------------
  slack (MET)                                         0.00


1
