Information: Updating design information... (UID-85)
 
****************************************
Report : timing
        -path full
        -delay max
        -max_paths 1
Design : FPmul
Version: O-2018.06-SP4
Date   : Sun Dec  6 12:44:10 2020
****************************************

Operating Conditions: typical   Library: NangateOpenCellLibrary
Wire Load Model Mode: top

  Startpoint: MY_CLK_r_REG549_S1
              (rising edge-triggered flip-flop clocked by MY_CLK)
  Endpoint: MY_CLK_r_REG452_S2
            (rising edge-triggered flip-flop clocked by MY_CLK)
  Path Group: MY_CLK
  Path Type: max

  Des/Clust/Port     Wire Load Model       Library
  ------------------------------------------------
  FPmul              5K_hvratio_1_1        NangateOpenCellLibrary

  Point                                    Incr       Path
  -----------------------------------------------------------
  clock MY_CLK (rise edge)                 0.00       0.00
  clock network delay (ideal)              0.00       0.00
  MY_CLK_r_REG549_S1/CK (DFF_X1)           0.00       0.00 r
  MY_CLK_r_REG549_S1/Q (DFF_X1)            0.13       0.13 r
  U3143/ZN (AND2_X1)                       0.06       0.19 r
  U1843/Z (CLKBUF_X2)                      0.06       0.25 r
  U2387/ZN (NAND2_X1)                      0.04       0.28 f
  U3354/ZN (NAND2_X1)                      0.03       0.31 r
  U3358/ZN (NOR2_X1)                       0.03       0.34 f
  U3473/ZN (XNOR2_X1)                      0.06       0.39 f
  U2051/ZN (XNOR2_X1)                      0.06       0.45 f
  U2060/ZN (OR2_X1)                        0.06       0.51 f
  U3648/ZN (NAND2_X1)                      0.03       0.54 r
  U1851/ZN (XNOR2_X1)                      0.05       0.60 r
  MY_CLK_r_REG452_S2/D (DFF_X1)            0.01       0.61 r
  data arrival time                                   0.61

  clock MY_CLK (rise edge)                 0.71       0.71
  clock network delay (ideal)              0.00       0.71
  clock uncertainty                       -0.07       0.64
  MY_CLK_r_REG452_S2/CK (DFF_X1)           0.00       0.64 r
  library setup time                      -0.03       0.61
  data required time                                  0.61
  -----------------------------------------------------------
  data required time                                  0.61
  data arrival time                                  -0.61
  -----------------------------------------------------------
  slack (MET)                                         0.00


1
