 
****************************************
Report : resources
Design : FPmul
Version: O-2018.06-SP4
Date   : Thu Dec  3 18:11:32 2020
****************************************

Resource Sharing Report for design FPmul in file
        ../fpuvhdl/multiplier/fpmul_stage1_struct.vhd

===============================================================================
|          |              |            | Contained     |                      |
| Resource | Module       | Parameters | Resources     | Contained Operations |
===============================================================================
| r572     | DW01_add     | width=8    |               | add_1_root_I2/add_157_2 |
| r574     | DW01_add     | width=64   |               | I2/multiplier/add_583 |
| r576     | DW01_inc     | width=25   |               | I3/I11/add_45        |
| r578     | DW01_add     | width=8    |               | I3/I9/add_41_aco     |
| r580     | DW01_add     | width=8    |               | I4/I1/add_41_aco     |
===============================================================================


Implementation Report
===============================================================================
|                    |                  | Current            | Set            |
| Cell               | Module           | Implementation     | Implementation |
===============================================================================
| I2/multiplier/add_583                 |                    |                |
|                    | DW01_add         | pparch (area,speed)                 |
| add_1_root_I2/add_157_2               |                    |                |
|                    | DW01_add         | rpl                |                |
| I3/I11/add_45      | DW01_inc         | rpl                |                |
===============================================================================

1
