 
****************************************
Report : resources
Design : FPmul
Version: O-2018.06-SP4
Date   : Fri Nov 20 01:57:01 2020
****************************************


Resource Report for this hierarchy in file
        ../fpuvhdl/multiplier/fpmul_stage1_struct.vhd
=============================================================================
| Cell           | Module         | Parameters | Contained Operations       |
=============================================================================
| mult_x_19      | DW_mult_uns    | a_width=32 | I2/mult_158 (fpmul_stage2_struct.vhd:158) |
  |                | b_width=32 |                            |
| add_x_232      | DW01_inc       | width=25   | I3/I11/add_45 (fpround_fpround.vhd:45) |
| add_x_237      | DW01_add       | width=8    | I3/I9/add_41_aco (fpnormalize_fpnormalize.vhd:41) |
| add_x_239      | DW01_add       | width=8    | I4/I1/add_41_aco (fpnormalize_fpnormalize.vhd:41) |
| DP_OP_364J1_122_7755            |            |                            |
|                | DP_OP_364J1_122_7755 |      |                            |
=============================================================================

Datapath Report for DP_OP_364J1_122_7755
==============================================================================
| Cell                 | Contained Operations                                |
==============================================================================
| DP_OP_364J1_122_7755 | I2/add_150 (fpmul_stage2_struct.vhd:150)            |
|                      | I2/add_150_2 (fpmul_stage2_struct.vhd:150)          |
==============================================================================

==============================================================================
|       |      | Data     |       |                                          |
| Var   | Type | Class    | Width | Expression                               |
==============================================================================
| I1    | PI   | Unsigned | 8     |                                          |
| I2    | PI   | Unsigned | 8     |                                          |
| O1    | PO   | Unsigned | 8     | I1 + I2 + $unsigned(1'b1) (fpmul_stage2_struct.vhd:150) |
==============================================================================


Implementation Report
===============================================================================
|                    |                  | Current            | Set            |
| Cell               | Module           | Implementation     | Implementation |
===============================================================================
| mult_x_19          | DW_mult_uns      | pparch (area,speed)                 |
|                    |                  | mult_arch: benc_radix4              |
| add_x_232          | DW01_inc         | apparch (area,speed)                |
| add_x_237          | DW01_add         | apparch (area)     |                |
| add_x_239          | DW01_add         | apparch (area)     |                |
| DP_OP_364J1_122_7755                  |                    |                |
|                    | DP_OP_364J1_122_7755 | str (area)     |                |
===============================================================================

1
