%!PS-Adobe-3.0
%%Creator: Model Technology ModelSim SE vsim 6.2g Simulator 2007.02 Feb 21 2007
%%Title: ../report/chapters/figures/jla_wave.ps
%%CreationDate: 2020-11-15 11:44:43 AM
%%DocumentData: Clean8Bit
%%DocumentNeededResources: font Helvetica
%%Orientation: Landscape
%%PageOrder: ascend
%%Pages: 1
%%EndComments
%%BeginSetup
%%BeginFeature: *PageSize 8.5x11.0
<< /PageSize [612.0 792.0]
/ImagingBBox null
>> setpagedevice
%%EndFeature
%%EndSetup
%%Page: 1 1
gsave
90 rotate 0.12 dup neg scale
% dump string table
/NP {newpath} def/SD {setdash} def/CL {setrgbcolor} def/GR {setgray} def
/SX {exch LEdge sub XScale mul MaxLabelWidth add LMargin add LEdge LabelWidth sub add exch} def/CSX {exch dup LabelWidth gt {exch SX} {exch} ifelse} def
/MT {SX moveto} def/LS {SX lineto stroke} def/LT {SX lineto} def/LFS {SX lineto fill stroke} def/RSS {rmoveto show stroke} def/ST {stroke} def/WT {CSX moveto dup stringwidth pop} def/TSW {pop 0 originOffset} def
/TSE {MaxLabelWidth LabelWidth sub LMargin add 0 rmoveto neg originOffset} def/TS {-2 div originOffset CSX} def
/MLW {stringwidth pop dup MaxLabelWidth gt {/MaxLabelWidth exch def}{pop} ifelse XS} def
/XS {/XScale LabelWidth LMargin sub MaxLabelWidth LEdge LabelWidth sub add sub REdge LEdge sub div 1 add def} def
/ARC {5 -2 roll SX 5 2 roll arc} def/LC {1 index stringwidth pop lt {pop ()} if} def
/PSN {   0 1 5 index 1 sub   { 	dup	3 index exch	get	4 index		3 -1 roll	3 index add	3 -1 roll	put    } for    pop pop} def
/RLS {    1 sub dup 0 lt    {	()    }    {	dup 3 add string	3 index 0	PSN	3 exch (...) 3 index	PSN	exch pop    } ifelse} def
/LCR {     dup (...) stringwidth pop     lt	{	    pop pop ()	} { 	1 index length	{
	    RLS	    dup stringwidth pop	    3 index	    le { exit} if	    4 -1 roll	    pop 3 1 roll	} loop	4 1 roll pop pop pop   } ifelse} def
/LC {    1 index stringwidth pop 1 index ge {LCR} {pop} ifelse} def
/XScale 1 def/MaxLabelWidth 0 def/LMargin 300 def/LEdge 1387 def/REdge 5699 def/LabelWidth 1350 def
/Helvetica findfont [83 0 0 -83 0 0] makefont setfont
/originOffset currentfont /FontBBox get 1 get currentfont /FontMatrix get 3 get mul neg def
(/tb_iir_jla/CLK_i) MLW
(/tb_iir_jla/DIN_i) MLW
(/tb_iir_jla/VIN_i) MLW
(/tb_iir_jla/VOUT_i) MLW
(/tb_iir_jla/DOUT_i) MLW
% draw waveform shading
[] 0 SD
2.995 setlinewidth
0 setlinejoin
0 setlinecap
0 0 0 CL
1387 335 MT 1387 425 LS
1387 425 MT 1693 425 LS
1693 425 MT 1693 335 LS
1693 335 MT 2000 335 LS
2000 335 MT 2000 425 LS
2000 425 MT 2307 425 LS
2307 425 MT 2307 335 LS
2307 335 MT 2614 335 LS
2614 335 MT 2614 425 LS
2614 425 MT 2921 425 LS
2921 425 MT 2921 335 LS
2921 335 MT 3228 335 LS
3228 335 MT 3228 425 LS
3228 425 MT 3535 425 LS
3535 425 MT 3535 335 LS
3535 335 MT 3842 335 LS
3842 335 MT 3842 425 LS
3842 425 MT 4149 425 LS
4149 425 MT 4149 335 LS
4149 335 MT 4456 335 LS
4456 335 MT 4456 425 LS
4456 425 MT 4763 425 LS
4763 425 MT 4763 335 LS
4763 335 MT 5070 335 LS
5070 335 MT 5070 425 LS
5070 425 MT 5377 425 LS
5377 425 MT 5377 335 LS
5377 335 MT 5684 335 LS
5684 335 MT 5684 425 LS
5684 425 MT 5991 425 LS
5991 425 MT 5991 335 LS
5991 335 MT 6298 335 LS
1387 499 MT 1387 499 LT 2976 499 LT 2983 545 LT ST
1387 590 MT 1387 590 LT 2976 590 LT 2983 545 LT ST
(111111111) 1568 LC 1401 545 WT pop 0 originOffset 41 add RSS
2983 545 MT 2983 545 LT 2990 499 LT 3589 499 LT 3596 545 LT ST
2983 545 MT 2983 545 LT 2990 590 LT 3589 590 LT 3596 545 LT ST
(001001111) 585 LC 2997 545 WT pop 0 originOffset 41 add RSS
3596 545 MT 3596 545 LT 3603 499 LT 4203 499 LT 4210 545 LT ST
3596 545 MT 3596 545 LT 3603 590 LT 4203 590 LT 4210 545 LT ST
(111111111) 586 LC 3610 545 WT pop 0 originOffset 41 add RSS
4210 545 MT 4210 545 LT 4217 499 LT 4817 499 LT 4824 545 LT ST
4210 545 MT 4210 545 LT 4217 590 LT 4817 590 LT 4824 545 LT ST
(110110000) 586 LC 4224 545 WT pop 0 originOffset 41 add RSS
4824 545 MT 4824 545 LT 4831 499 LT 5431 499 LT 5438 545 LT ST
4824 545 MT 4824 545 LT 4831 590 LT 5431 590 LT 5438 545 LT ST
(111111111) 586 LC 4838 545 WT pop 0 originOffset 41 add RSS
5438 545 MT 5438 545 LT 5445 499 LT 6045 499 LT 6052 545 LT ST
5438 545 MT 5438 545 LT 5445 590 LT 6045 590 LT 6052 545 LT ST
(100110000) 586 LC 5452 545 WT pop 0 originOffset 41 add RSS
6052 545 MT 6052 545 LT 6059 499 LT 6298 499 LT ST
6052 545 MT 6052 545 LT 6059 590 LT 6298 590 LT ST
(111111111) 218 LC 6066 545 WT pop 0 originOffset 41 add RSS
1387 665 MT 1755 665 LS
1755 665 MT 1755 755 LS
1755 755 MT 2983 755 LS
2983 755 MT 2983 665 LS
2983 665 MT 6298 665 LS
1387 830 MT 4149 830 LS
4149 830 MT 4149 920 LS
4149 920 MT 5377 920 LS
5377 920 MT 5377 830 LS
5377 830 MT 6298 830 LS
1387 994 MT 1387 994 LT 1686 994 LT 1693 1040 LT ST
1387 1085 MT 1387 1085 LT 1686 1085 LT 1693 1040 LT ST
(001100100) 278 LC 1401 1040 WT pop 0 originOffset 41 add RSS
1693 1040 MT 1693 1040 LT 1700 994 LT 2300 994 LT 2307 1040 LT ST
1693 1040 MT 1693 1040 LT 1700 1085 LT 2300 1085 LT 2307 1040 LT ST
(001110100) 586 LC 1707 1040 WT pop 0 originOffset 41 add RSS
2307 1040 MT 2307 1040 LT 2314 994 LT 2914 994 LT 2921 1040 LT ST
2307 1040 MT 2307 1040 LT 2314 1085 LT 2914 1085 LT 2921 1040 LT ST
(001111110) 586 LC 2321 1040 WT pop 0 originOffset 41 add RSS
2921 1040 MT 2921 1040 LT 2928 994 LT 3528 994 LT 3535 1040 LT ST
2921 1040 MT 2921 1040 LT 2928 1085 LT 3528 1085 LT 3535 1040 LT ST
(001110011) 586 LC 2935 1040 WT pop 0 originOffset 41 add RSS
3535 1040 MT 3535 1040 LT 3542 994 LT 5370 994 LT 5377 1040 LT ST
3535 1040 MT 3535 1040 LT 3542 1085 LT 5370 1085 LT 5377 1040 LT ST
(001100101) 1814 LC 3549 1040 WT pop 0 originOffset 41 add RSS
5377 1040 MT 5377 1040 LT 5384 994 LT 5984 994 LT 5991 1040 LT ST
5377 1040 MT 5377 1040 LT 5384 1085 LT 5984 1085 LT 5991 1040 LT ST
(001000110) 586 LC 5391 1040 WT pop 0 originOffset 41 add RSS
5991 1040 MT 5991 1040 LT 5998 994 LT 6298 994 LT ST
5991 1040 MT 5991 1040 LT 5998 1085 LT 6298 1085 LT ST
(000100101) 279 LC 6005 1040 WT pop 0 originOffset 41 add RSS
% draw timeline
1448 4506 MT 1448 4543 LS
1510 4506 MT 1510 4543 LS
1571 4506 MT 1571 4543 LS
1633 4506 MT 1633 4543 LS
1694 4506 MT 1694 4543 LS
1755 4506 MT 1755 4543 LS
1817 4506 MT 1817 4543 LS
1878 4506 MT 1878 4543 LS
1939 4506 MT 1939 4543 LS
2061 4506 MT 2061 4543 LS
2123 4506 MT 2123 4543 LS
2184 4506 MT 2184 4543 LS
2246 4506 MT 2246 4543 LS
2307 4506 MT 2307 4543 LS
2368 4506 MT 2368 4543 LS
2430 4506 MT 2430 4543 LS
2491 4506 MT 2491 4543 LS
2552 4506 MT 2552 4543 LS
2000 4479 MT 2000 4543 LS
2675 4506 MT 2675 4543 LS
2737 4506 MT 2737 4543 LS
2798 4506 MT 2798 4543 LS
2860 4506 MT 2860 4543 LS
2921 4506 MT 2921 4543 LS
2982 4506 MT 2982 4543 LS
3044 4506 MT 3044 4543 LS
3105 4506 MT 3105 4543 LS
3166 4506 MT 3166 4543 LS
2614 4479 MT 2614 4543 LS
(120) 9999 LC 2614 4631 WT TS RSS
3289 4506 MT 3289 4543 LS
3351 4506 MT 3351 4543 LS
3412 4506 MT 3412 4543 LS
3474 4506 MT 3474 4543 LS
3535 4506 MT 3535 4543 LS
3596 4506 MT 3596 4543 LS
3658 4506 MT 3658 4543 LS
3719 4506 MT 3719 4543 LS
3780 4506 MT 3780 4543 LS
3228 4479 MT 3228 4543 LS
3903 4506 MT 3903 4543 LS
3965 4506 MT 3965 4543 LS
4026 4506 MT 4026 4543 LS
4088 4506 MT 4088 4543 LS
4149 4506 MT 4149 4543 LS
4210 4506 MT 4210 4543 LS
4272 4506 MT 4272 4543 LS
4333 4506 MT 4333 4543 LS
4394 4506 MT 4394 4543 LS
3842 4479 MT 3842 4543 LS
(140) 9999 LC 3842 4631 WT TS RSS
4517 4506 MT 4517 4543 LS
4579 4506 MT 4579 4543 LS
4640 4506 MT 4640 4543 LS
4702 4506 MT 4702 4543 LS
4763 4506 MT 4763 4543 LS
4824 4506 MT 4824 4543 LS
4886 4506 MT 4886 4543 LS
4947 4506 MT 4947 4543 LS
5008 4506 MT 5008 4543 LS
4456 4479 MT 4456 4543 LS
5131 4506 MT 5131 4543 LS
5193 4506 MT 5193 4543 LS
5254 4506 MT 5254 4543 LS
5316 4506 MT 5316 4543 LS
5377 4506 MT 5377 4543 LS
5438 4506 MT 5438 4543 LS
5500 4506 MT 5500 4543 LS
5561 4506 MT 5561 4543 LS
5622 4506 MT 5622 4543 LS
5070 4479 MT 5070 4543 LS
(160) 9999 LC 5070 4631 WT TS RSS
5745 4506 MT 5745 4543 LS
5807 4506 MT 5807 4543 LS
5868 4506 MT 5868 4543 LS
5930 4506 MT 5930 4543 LS
5991 4506 MT 5991 4543 LS
6052 4506 MT 6052 4543 LS
6114 4506 MT 6114 4543 LS
6175 4506 MT 6175 4543 LS
6236 4506 MT 6236 4543 LS
5684 4479 MT 5684 4543 LS
6359 4506 MT 6359 4543 LS
6421 4506 MT 6421 4543 LS
6482 4506 MT 6482 4543 LS
6544 4506 MT 6544 4543 LS
6605 4506 MT 6605 4543 LS
6666 4506 MT 6666 4543 LS
6728 4506 MT 6728 4543 LS
6789 4506 MT 6789 4543 LS
6850 4506 MT 6850 4543 LS
6298 4479 MT 6298 4543 LS
(180) 9999 LC 6298 4631 WT TS RSS
% draw grid
1693 300 MT 1693 4479 LS
2000 300 MT 2000 4479 LS
2307 300 MT 2307 4479 LS
2614 300 MT 2614 4479 LS
2921 300 MT 2921 4479 LS
3228 300 MT 3228 4479 LS
3535 300 MT 3535 4479 LS
3842 300 MT 3842 4479 LS
4149 300 MT 4149 4479 LS
4456 300 MT 4456 4479 LS
4763 300 MT 4763 4479 LS
5070 300 MT 5070 4479 LS
5377 300 MT 5377 4479 LS
5684 300 MT 5684 4479 LS
5991 300 MT 5991 4479 LS
6298 300 MT 6298 4479 LS
% draw waveforms
(/tb_iir_jla/CLK_i) 9999 LC 1350 424 WT TSE RSS
1686 300 MT 1700 300 LS
1993 300 MT 2007 300 LS
2300 300 MT 2314 300 LS
2607 300 MT 2621 300 LS
2914 300 MT 2928 300 LS
3221 300 MT 3235 300 LS
3528 300 MT 3542 300 LS
3835 300 MT 3849 300 LS
4142 300 MT 4156 300 LS
4449 300 MT 4463 300 LS
4756 300 MT 4770 300 LS
5063 300 MT 5077 300 LS
5370 300 MT 5384 300 LS
5677 300 MT 5691 300 LS
5984 300 MT 5998 300 LS
6291 300 MT 6305 300 LS
1387 335 MT 1387 425 LS
1387 425 MT 1693 425 LS
1693 425 MT 1693 335 LS
1693 335 MT 2000 335 LS
2000 335 MT 2000 425 LS
2000 425 MT 2307 425 LS
2307 425 MT 2307 335 LS
2307 335 MT 2614 335 LS
2614 335 MT 2614 425 LS
2614 425 MT 2921 425 LS
2921 425 MT 2921 335 LS
2921 335 MT 3228 335 LS
3228 335 MT 3228 425 LS
3228 425 MT 3535 425 LS
3535 425 MT 3535 335 LS
3535 335 MT 3842 335 LS
3842 335 MT 3842 425 LS
3842 425 MT 4149 425 LS
4149 425 MT 4149 335 LS
4149 335 MT 4456 335 LS
4456 335 MT 4456 425 LS
4456 425 MT 4763 425 LS
4763 425 MT 4763 335 LS
4763 335 MT 5070 335 LS
5070 335 MT 5070 425 LS
5070 425 MT 5377 425 LS
5377 425 MT 5377 335 LS
5377 335 MT 5684 335 LS
5684 335 MT 5684 425 LS
5684 425 MT 5991 425 LS
5991 425 MT 5991 335 LS
5991 335 MT 6298 335 LS
(/tb_iir_jla/DIN_i) 9999 LC 1350 589 WT TSE RSS
1686 465 MT 1700 465 LS
1993 465 MT 2007 465 LS
2300 465 MT 2314 465 LS
2607 465 MT 2621 465 LS
2914 465 MT 2928 465 LS
3221 465 MT 3235 465 LS
3528 465 MT 3542 465 LS
3835 465 MT 3849 465 LS
4142 465 MT 4156 465 LS
4449 465 MT 4463 465 LS
4756 465 MT 4770 465 LS
5063 465 MT 5077 465 LS
5370 465 MT 5384 465 LS
5677 465 MT 5691 465 LS
5984 465 MT 5998 465 LS
6291 465 MT 6305 465 LS
1387 499 MT 1387 499 LT 2976 499 LT 2983 545 LT ST
1387 590 MT 1387 590 LT 2976 590 LT 2983 545 LT ST
(111111111) 1568 LC 1401 545 WT pop 0 originOffset 41 add RSS
2983 545 MT 2983 545 LT 2990 499 LT 3589 499 LT 3596 545 LT ST
2983 545 MT 2983 545 LT 2990 590 LT 3589 590 LT 3596 545 LT ST
(001001111) 585 LC 2997 545 WT pop 0 originOffset 41 add RSS
3596 545 MT 3596 545 LT 3603 499 LT 4203 499 LT 4210 545 LT ST
3596 545 MT 3596 545 LT 3603 590 LT 4203 590 LT 4210 545 LT ST
(111111111) 586 LC 3610 545 WT pop 0 originOffset 41 add RSS
4210 545 MT 4210 545 LT 4217 499 LT 4817 499 LT 4824 545 LT ST
4210 545 MT 4210 545 LT 4217 590 LT 4817 590 LT 4824 545 LT ST
(110110000) 586 LC 4224 545 WT pop 0 originOffset 41 add RSS
4824 545 MT 4824 545 LT 4831 499 LT 5431 499 LT 5438 545 LT ST
4824 545 MT 4824 545 LT 4831 590 LT 5431 590 LT 5438 545 LT ST
(111111111) 586 LC 4838 545 WT pop 0 originOffset 41 add RSS
5438 545 MT 5438 545 LT 5445 499 LT 6045 499 LT 6052 545 LT ST
5438 545 MT 5438 545 LT 5445 590 LT 6045 590 LT 6052 545 LT ST
(100110000) 586 LC 5452 545 WT pop 0 originOffset 41 add RSS
6052 545 MT 6052 545 LT 6059 499 LT 6298 499 LT ST
6052 545 MT 6052 545 LT 6059 590 LT 6298 590 LT ST
(111111111) 218 LC 6066 545 WT pop 0 originOffset 41 add RSS
(/tb_iir_jla/VIN_i) 9999 LC 1350 754 WT TSE RSS
1686 630 MT 1700 630 LS
1993 630 MT 2007 630 LS
2300 630 MT 2314 630 LS
2607 630 MT 2621 630 LS
2914 630 MT 2928 630 LS
3221 630 MT 3235 630 LS
3528 630 MT 3542 630 LS
3835 630 MT 3849 630 LS
4142 630 MT 4156 630 LS
4449 630 MT 4463 630 LS
4756 630 MT 4770 630 LS
5063 630 MT 5077 630 LS
5370 630 MT 5384 630 LS
5677 630 MT 5691 630 LS
5984 630 MT 5998 630 LS
6291 630 MT 6305 630 LS
1387 665 MT 1755 665 LS
1755 665 MT 1755 755 LS
1755 755 MT 2983 755 LS
2983 755 MT 2983 665 LS
2983 665 MT 6298 665 LS
(/tb_iir_jla/VOUT_i) 9999 LC 1350 919 WT TSE RSS
1686 795 MT 1700 795 LS
1993 795 MT 2007 795 LS
2300 795 MT 2314 795 LS
2607 795 MT 2621 795 LS
2914 795 MT 2928 795 LS
3221 795 MT 3235 795 LS
3528 795 MT 3542 795 LS
3835 795 MT 3849 795 LS
4142 795 MT 4156 795 LS
4449 795 MT 4463 795 LS
4756 795 MT 4770 795 LS
5063 795 MT 5077 795 LS
5370 795 MT 5384 795 LS
5677 795 MT 5691 795 LS
5984 795 MT 5998 795 LS
6291 795 MT 6305 795 LS
1387 830 MT 4149 830 LS
4149 830 MT 4149 920 LS
4149 920 MT 5377 920 LS
5377 920 MT 5377 830 LS
5377 830 MT 6298 830 LS
(/tb_iir_jla/DOUT_i) 9999 LC 1350 1084 WT TSE RSS
1686 960 MT 1700 960 LS
1993 960 MT 2007 960 LS
2300 960 MT 2314 960 LS
2607 960 MT 2621 960 LS
2914 960 MT 2928 960 LS
3221 960 MT 3235 960 LS
3528 960 MT 3542 960 LS
3835 960 MT 3849 960 LS
4142 960 MT 4156 960 LS
4449 960 MT 4463 960 LS
4756 960 MT 4770 960 LS
5063 960 MT 5077 960 LS
5370 960 MT 5384 960 LS
5677 960 MT 5691 960 LS
5984 960 MT 5998 960 LS
6291 960 MT 6305 960 LS
1387 994 MT 1387 994 LT 1686 994 LT 1693 1040 LT ST
1387 1085 MT 1387 1085 LT 1686 1085 LT 1693 1040 LT ST
(001100100) 278 LC 1401 1040 WT pop 0 originOffset 41 add RSS
1693 1040 MT 1693 1040 LT 1700 994 LT 2300 994 LT 2307 1040 LT ST
1693 1040 MT 1693 1040 LT 1700 1085 LT 2300 1085 LT 2307 1040 LT ST
(001110100) 586 LC 1707 1040 WT pop 0 originOffset 41 add RSS
2307 1040 MT 2307 1040 LT 2314 994 LT 2914 994 LT 2921 1040 LT ST
2307 1040 MT 2307 1040 LT 2314 1085 LT 2914 1085 LT 2921 1040 LT ST
(001111110) 586 LC 2321 1040 WT pop 0 originOffset 41 add RSS
2921 1040 MT 2921 1040 LT 2928 994 LT 3528 994 LT 3535 1040 LT ST
2921 1040 MT 2921 1040 LT 2928 1085 LT 3528 1085 LT 3535 1040 LT ST
(001110011) 586 LC 2935 1040 WT pop 0 originOffset 41 add RSS
3535 1040 MT 3535 1040 LT 3542 994 LT 5370 994 LT 5377 1040 LT ST
3535 1040 MT 3535 1040 LT 3542 1085 LT 5370 1085 LT 5377 1040 LT ST
(001100101) 1814 LC 3549 1040 WT pop 0 originOffset 41 add RSS
5377 1040 MT 5377 1040 LT 5384 994 LT 5984 994 LT 5991 1040 LT ST
5377 1040 MT 5377 1040 LT 5384 1085 LT 5984 1085 LT 5991 1040 LT ST
(001000110) 586 LC 5391 1040 WT pop 0 originOffset 41 add RSS
5991 1040 MT 5991 1040 LT 5998 994 LT 6298 994 LT ST
5991 1040 MT 5991 1040 LT 5998 1085 LT 6298 1085 LT ST
(000100101) 279 LC 6005 1040 WT pop 0 originOffset 41 add RSS
% draw footer
(Entity:tb_iir_jla  Architecture:  Date: Sun Nov 15 11:44:42 AM CET 2020   Row: 1 Page: 1) 9999 LC 300 4799 WT TSW RSS
grestore
showpage
%%EOF
