%!PS-Adobe-3.0
%%Creator: Model Technology ModelSim SE vsim 6.2g Simulator 2007.02 Feb 21 2007
%%Title: ../report/chapters/figures/std_wave.ps
%%CreationDate: 2020-11-15 11:36:05 AM
%%DocumentData: Clean8Bit
%%DocumentNeededResources: font Helvetica
%%Orientation: Landscape
%%PageOrder: ascend
%%Pages: 1
%%EndComments
%%BeginSetup
%%BeginFeature: *PageSize 8.5x11.0
<< /PageSize [612.0 792.0]
/ImagingBBox null
>> setpagedevice
%%EndFeature
%%EndSetup
%%Page: 1 1
gsave
90 rotate 0.12 dup neg scale
% dump string table
/NP {newpath} def/SD {setdash} def/CL {setrgbcolor} def/GR {setgray} def
/SX {exch LEdge sub XScale mul MaxLabelWidth add LMargin add LEdge LabelWidth sub add exch} def/CSX {exch dup LabelWidth gt {exch SX} {exch} ifelse} def
/MT {SX moveto} def/LS {SX lineto stroke} def/LT {SX lineto} def/LFS {SX lineto fill stroke} def/RSS {rmoveto show stroke} def/ST {stroke} def/WT {CSX moveto dup stringwidth pop} def/TSW {pop 0 originOffset} def
/TSE {MaxLabelWidth LabelWidth sub LMargin add 0 rmoveto neg originOffset} def/TS {-2 div originOffset CSX} def
/MLW {stringwidth pop dup MaxLabelWidth gt {/MaxLabelWidth exch def}{pop} ifelse XS} def
/XS {/XScale LabelWidth LMargin sub MaxLabelWidth LEdge LabelWidth sub add sub REdge LEdge sub div 1 add def} def
/ARC {5 -2 roll SX 5 2 roll arc} def/LC {1 index stringwidth pop lt {pop ()} if} def
/PSN {   0 1 5 index 1 sub   { 	dup	3 index exch	get	4 index		3 -1 roll	3 index add	3 -1 roll	put    } for    pop pop} def
/RLS {    1 sub dup 0 lt    {	()    }    {	dup 3 add string	3 index 0	PSN	3 exch (...) 3 index	PSN	exch pop    } ifelse} def
/LCR {     dup (...) stringwidth pop     lt	{	    pop pop ()	} { 	1 index length	{
	    RLS	    dup stringwidth pop	    3 index	    le { exit} if	    4 -1 roll	    pop 3 1 roll	} loop	4 1 roll pop pop pop   } ifelse} def
/LC {    1 index stringwidth pop 1 index ge {LCR} {pop} ifelse} def
/XScale 1 def/MaxLabelWidth 0 def/LMargin 300 def/LEdge 1328 def/REdge 5699 def/LabelWidth 1291 def
/Helvetica findfont [83 0 0 -83 0 0] makefont setfont
/originOffset currentfont /FontBBox get 1 get currentfont /FontMatrix get 3 get mul neg def
(/tb_iir_wv/CLK_i) MLW
(/tb_iir_wv/DIN_i) MLW
(/tb_iir_wv/VIN_i) MLW
(/tb_iir_wv/VOUT_i) MLW
(/tb_iir_wv/DOUT_i) MLW
% draw waveform shading
[] 0 SD
2.995 setlinewidth
0 setlinejoin
0 setlinecap
0 0 0 CL
1328 335 MT 1328 425 LS
1328 425 MT 1683 425 LS
1683 425 MT 1683 335 LS
1683 335 MT 2038 335 LS
2038 335 MT 2038 425 LS
2038 425 MT 2393 425 LS
2393 425 MT 2393 335 LS
2393 335 MT 2748 335 LS
2748 335 MT 2748 425 LS
2748 425 MT 3103 425 LS
3103 425 MT 3103 335 LS
3103 335 MT 3458 335 LS
3458 335 MT 3458 425 LS
3458 425 MT 3813 425 LS
3813 425 MT 3813 335 LS
3813 335 MT 4168 335 LS
4168 335 MT 4168 425 LS
4168 425 MT 4523 425 LS
4523 425 MT 4523 335 LS
4523 335 MT 4878 335 LS
4878 335 MT 4878 425 LS
4878 425 MT 5233 425 LS
5233 425 MT 5233 335 LS
5233 335 MT 5588 335 LS
5588 335 MT 5588 425 LS
5588 425 MT 5943 425 LS
5943 425 MT 5943 335 LS
5943 335 MT 6298 335 LS
1328 499 MT 1328 499 LT 1747 499 LT 1754 545 LT ST
1328 590 MT 1328 590 LT 1747 590 LT 1754 545 LT ST
(011001111) 398 LC 1342 545 WT pop 0 originOffset 41 add RSS
1754 545 MT 1754 545 LT 1761 499 LT 3877 499 LT 3884 545 LT ST
1754 545 MT 1754 545 LT 1761 590 LT 3877 590 LT 3884 545 LT ST
(111111111) 2102 LC 1768 545 WT pop 0 originOffset 41 add RSS
3884 545 MT 3884 545 LT 3891 499 LT 4587 499 LT 4594 545 LT ST
3884 545 MT 3884 545 LT 3891 590 LT 4587 590 LT 4594 545 LT ST
(001001111) 682 LC 3898 545 WT pop 0 originOffset 41 add RSS
4594 545 MT 4594 545 LT 4601 499 LT 5297 499 LT 5304 545 LT ST
4594 545 MT 4594 545 LT 4601 590 LT 5297 590 LT 5304 545 LT ST
(111111111) 682 LC 4608 545 WT pop 0 originOffset 41 add RSS
5304 545 MT 5304 545 LT 5311 499 LT 6007 499 LT 6014 545 LT ST
5304 545 MT 5304 545 LT 5311 590 LT 6007 590 LT 6014 545 LT ST
(110110000) 682 LC 5318 545 WT pop 0 originOffset 41 add RSS
6014 545 MT 6014 545 LT 6021 499 LT 6298 499 LT ST
6014 545 MT 6014 545 LT 6021 590 LT 6298 590 LT ST
(111111111) 256 LC 6028 545 WT pop 0 originOffset 41 add RSS
1328 665 MT 2464 665 LS
2464 665 MT 2464 755 LS
2464 755 MT 3884 755 LS
3884 755 MT 3884 665 LS
3884 665 MT 6298 665 LS
1328 830 MT 3813 830 LS
3813 830 MT 3813 920 LS
3813 920 MT 5233 920 LS
5233 920 MT 5233 830 LS
5233 830 MT 6298 830 LS
1328 994 MT 1328 994 LT 1676 994 LT 1683 1040 LT ST
1328 1085 MT 1328 1085 LT 1676 1085 LT 1683 1040 LT ST
(001110011) 327 LC 1342 1040 WT pop 0 originOffset 41 add RSS
1683 1040 MT 1683 1040 LT 1690 994 LT 2386 994 LT 2393 1040 LT ST
1683 1040 MT 1683 1040 LT 1690 1085 LT 2386 1085 LT 2393 1040 LT ST
(001111110) 682 LC 1697 1040 WT pop 0 originOffset 41 add RSS
2393 1040 MT 2393 1040 LT 2400 994 LT 3096 994 LT 3103 1040 LT ST
2393 1040 MT 2393 1040 LT 2400 1085 LT 3096 1085 LT 3103 1040 LT ST
(001110011) 682 LC 2407 1040 WT pop 0 originOffset 41 add RSS
3103 1040 MT 3103 1040 LT 3110 994 LT 5226 994 LT 5233 1040 LT ST
3103 1040 MT 3103 1040 LT 3110 1085 LT 5226 1085 LT 5233 1040 LT ST
(001100101) 2102 LC 3117 1040 WT pop 0 originOffset 41 add RSS
5233 1040 MT 5233 1040 LT 5240 994 LT 5936 994 LT 5943 1040 LT ST
5233 1040 MT 5233 1040 LT 5240 1085 LT 5936 1085 LT 5943 1040 LT ST
(001000110) 682 LC 5247 1040 WT pop 0 originOffset 41 add RSS
5943 1040 MT 5943 1040 LT 5950 994 LT 6298 994 LT ST
5943 1040 MT 5943 1040 LT 5950 1085 LT 6298 1085 LT ST
(000100101) 327 LC 5957 1040 WT pop 0 originOffset 41 add RSS
% draw timeline
1399 4506 MT 1399 4543 LS
1470 4506 MT 1470 4543 LS
1541 4506 MT 1541 4543 LS
1612 4506 MT 1612 4543 LS
1754 4506 MT 1754 4543 LS
1825 4506 MT 1825 4543 LS
1896 4506 MT 1896 4543 LS
1967 4506 MT 1967 4543 LS
1683 4479 MT 1683 4543 LS
2109 4506 MT 2109 4543 LS
2180 4506 MT 2180 4543 LS
2251 4506 MT 2251 4543 LS
2322 4506 MT 2322 4543 LS
2038 4479 MT 2038 4543 LS
(100) 9999 LC 2038 4631 WT TS RSS
2464 4506 MT 2464 4543 LS
2535 4506 MT 2535 4543 LS
2606 4506 MT 2606 4543 LS
2677 4506 MT 2677 4543 LS
2393 4479 MT 2393 4543 LS
2819 4506 MT 2819 4543 LS
2890 4506 MT 2890 4543 LS
2961 4506 MT 2961 4543 LS
3032 4506 MT 3032 4543 LS
2748 4479 MT 2748 4543 LS
(110) 9999 LC 2748 4631 WT TS RSS
3174 4506 MT 3174 4543 LS
3245 4506 MT 3245 4543 LS
3316 4506 MT 3316 4543 LS
3387 4506 MT 3387 4543 LS
3103 4479 MT 3103 4543 LS
3529 4506 MT 3529 4543 LS
3600 4506 MT 3600 4543 LS
3671 4506 MT 3671 4543 LS
3742 4506 MT 3742 4543 LS
3458 4479 MT 3458 4543 LS
(120) 9999 LC 3458 4631 WT TS RSS
3884 4506 MT 3884 4543 LS
3955 4506 MT 3955 4543 LS
4026 4506 MT 4026 4543 LS
4097 4506 MT 4097 4543 LS
3813 4479 MT 3813 4543 LS
4239 4506 MT 4239 4543 LS
4310 4506 MT 4310 4543 LS
4381 4506 MT 4381 4543 LS
4452 4506 MT 4452 4543 LS
4168 4479 MT 4168 4543 LS
(130) 9999 LC 4168 4631 WT TS RSS
4594 4506 MT 4594 4543 LS
4665 4506 MT 4665 4543 LS
4736 4506 MT 4736 4543 LS
4807 4506 MT 4807 4543 LS
4523 4479 MT 4523 4543 LS
4949 4506 MT 4949 4543 LS
5020 4506 MT 5020 4543 LS
5091 4506 MT 5091 4543 LS
5162 4506 MT 5162 4543 LS
4878 4479 MT 4878 4543 LS
(140) 9999 LC 4878 4631 WT TS RSS
5304 4506 MT 5304 4543 LS
5375 4506 MT 5375 4543 LS
5446 4506 MT 5446 4543 LS
5517 4506 MT 5517 4543 LS
5233 4479 MT 5233 4543 LS
5659 4506 MT 5659 4543 LS
5730 4506 MT 5730 4543 LS
5801 4506 MT 5801 4543 LS
5872 4506 MT 5872 4543 LS
5588 4479 MT 5588 4543 LS
(150) 9999 LC 5588 4631 WT TS RSS
6014 4506 MT 6014 4543 LS
6085 4506 MT 6085 4543 LS
6156 4506 MT 6156 4543 LS
6227 4506 MT 6227 4543 LS
5943 4479 MT 5943 4543 LS
6369 4506 MT 6369 4543 LS
6440 4506 MT 6440 4543 LS
6511 4506 MT 6511 4543 LS
6582 4506 MT 6582 4543 LS
6298 4479 MT 6298 4543 LS
(160) 9999 LC 6298 4631 WT TS RSS
% draw grid
1683 300 MT 1683 4479 LS
2038 300 MT 2038 4479 LS
2393 300 MT 2393 4479 LS
2748 300 MT 2748 4479 LS
3103 300 MT 3103 4479 LS
3458 300 MT 3458 4479 LS
3813 300 MT 3813 4479 LS
4168 300 MT 4168 4479 LS
4523 300 MT 4523 4479 LS
4878 300 MT 4878 4479 LS
5233 300 MT 5233 4479 LS
5588 300 MT 5588 4479 LS
5943 300 MT 5943 4479 LS
6298 300 MT 6298 4479 LS
% draw waveforms
(/tb_iir_wv/CLK_i) 9999 LC 1291 424 WT TSE RSS
1676 300 MT 1690 300 LS
2031 300 MT 2045 300 LS
2386 300 MT 2400 300 LS
2741 300 MT 2755 300 LS
3096 300 MT 3110 300 LS
3451 300 MT 3465 300 LS
3806 300 MT 3820 300 LS
4161 300 MT 4175 300 LS
4516 300 MT 4530 300 LS
4871 300 MT 4885 300 LS
5226 300 MT 5240 300 LS
5581 300 MT 5595 300 LS
5936 300 MT 5950 300 LS
6291 300 MT 6305 300 LS
1328 335 MT 1328 425 LS
1328 425 MT 1683 425 LS
1683 425 MT 1683 335 LS
1683 335 MT 2038 335 LS
2038 335 MT 2038 425 LS
2038 425 MT 2393 425 LS
2393 425 MT 2393 335 LS
2393 335 MT 2748 335 LS
2748 335 MT 2748 425 LS
2748 425 MT 3103 425 LS
3103 425 MT 3103 335 LS
3103 335 MT 3458 335 LS
3458 335 MT 3458 425 LS
3458 425 MT 3813 425 LS
3813 425 MT 3813 335 LS
3813 335 MT 4168 335 LS
4168 335 MT 4168 425 LS
4168 425 MT 4523 425 LS
4523 425 MT 4523 335 LS
4523 335 MT 4878 335 LS
4878 335 MT 4878 425 LS
4878 425 MT 5233 425 LS
5233 425 MT 5233 335 LS
5233 335 MT 5588 335 LS
5588 335 MT 5588 425 LS
5588 425 MT 5943 425 LS
5943 425 MT 5943 335 LS
5943 335 MT 6298 335 LS
(/tb_iir_wv/DIN_i) 9999 LC 1291 589 WT TSE RSS
1676 465 MT 1690 465 LS
2031 465 MT 2045 465 LS
2386 465 MT 2400 465 LS
2741 465 MT 2755 465 LS
3096 465 MT 3110 465 LS
3451 465 MT 3465 465 LS
3806 465 MT 3820 465 LS
4161 465 MT 4175 465 LS
4516 465 MT 4530 465 LS
4871 465 MT 4885 465 LS
5226 465 MT 5240 465 LS
5581 465 MT 5595 465 LS
5936 465 MT 5950 465 LS
6291 465 MT 6305 465 LS
1328 499 MT 1328 499 LT 1747 499 LT 1754 545 LT ST
1328 590 MT 1328 590 LT 1747 590 LT 1754 545 LT ST
(011001111) 398 LC 1342 545 WT pop 0 originOffset 41 add RSS
1754 545 MT 1754 545 LT 1761 499 LT 3877 499 LT 3884 545 LT ST
1754 545 MT 1754 545 LT 1761 590 LT 3877 590 LT 3884 545 LT ST
(111111111) 2102 LC 1768 545 WT pop 0 originOffset 41 add RSS
3884 545 MT 3884 545 LT 3891 499 LT 4587 499 LT 4594 545 LT ST
3884 545 MT 3884 545 LT 3891 590 LT 4587 590 LT 4594 545 LT ST
(001001111) 682 LC 3898 545 WT pop 0 originOffset 41 add RSS
4594 545 MT 4594 545 LT 4601 499 LT 5297 499 LT 5304 545 LT ST
4594 545 MT 4594 545 LT 4601 590 LT 5297 590 LT 5304 545 LT ST
(111111111) 682 LC 4608 545 WT pop 0 originOffset 41 add RSS
5304 545 MT 5304 545 LT 5311 499 LT 6007 499 LT 6014 545 LT ST
5304 545 MT 5304 545 LT 5311 590 LT 6007 590 LT 6014 545 LT ST
(110110000) 682 LC 5318 545 WT pop 0 originOffset 41 add RSS
6014 545 MT 6014 545 LT 6021 499 LT 6298 499 LT ST
6014 545 MT 6014 545 LT 6021 590 LT 6298 590 LT ST
(111111111) 256 LC 6028 545 WT pop 0 originOffset 41 add RSS
(/tb_iir_wv/VIN_i) 9999 LC 1291 754 WT TSE RSS
1676 630 MT 1690 630 LS
2031 630 MT 2045 630 LS
2386 630 MT 2400 630 LS
2741 630 MT 2755 630 LS
3096 630 MT 3110 630 LS
3451 630 MT 3465 630 LS
3806 630 MT 3820 630 LS
4161 630 MT 4175 630 LS
4516 630 MT 4530 630 LS
4871 630 MT 4885 630 LS
5226 630 MT 5240 630 LS
5581 630 MT 5595 630 LS
5936 630 MT 5950 630 LS
6291 630 MT 6305 630 LS
1328 665 MT 2464 665 LS
2464 665 MT 2464 755 LS
2464 755 MT 3884 755 LS
3884 755 MT 3884 665 LS
3884 665 MT 6298 665 LS
(/tb_iir_wv/VOUT_i) 9999 LC 1291 919 WT TSE RSS
1676 795 MT 1690 795 LS
2031 795 MT 2045 795 LS
2386 795 MT 2400 795 LS
2741 795 MT 2755 795 LS
3096 795 MT 3110 795 LS
3451 795 MT 3465 795 LS
3806 795 MT 3820 795 LS
4161 795 MT 4175 795 LS
4516 795 MT 4530 795 LS
4871 795 MT 4885 795 LS
5226 795 MT 5240 795 LS
5581 795 MT 5595 795 LS
5936 795 MT 5950 795 LS
6291 795 MT 6305 795 LS
1328 830 MT 3813 830 LS
3813 830 MT 3813 920 LS
3813 920 MT 5233 920 LS
5233 920 MT 5233 830 LS
5233 830 MT 6298 830 LS
(/tb_iir_wv/DOUT_i) 9999 LC 1291 1084 WT TSE RSS
1676 960 MT 1690 960 LS
2031 960 MT 2045 960 LS
2386 960 MT 2400 960 LS
2741 960 MT 2755 960 LS
3096 960 MT 3110 960 LS
3451 960 MT 3465 960 LS
3806 960 MT 3820 960 LS
4161 960 MT 4175 960 LS
4516 960 MT 4530 960 LS
4871 960 MT 4885 960 LS
5226 960 MT 5240 960 LS
5581 960 MT 5595 960 LS
5936 960 MT 5950 960 LS
6291 960 MT 6305 960 LS
1328 994 MT 1328 994 LT 1676 994 LT 1683 1040 LT ST
1328 1085 MT 1328 1085 LT 1676 1085 LT 1683 1040 LT ST
(001110011) 327 LC 1342 1040 WT pop 0 originOffset 41 add RSS
1683 1040 MT 1683 1040 LT 1690 994 LT 2386 994 LT 2393 1040 LT ST
1683 1040 MT 1683 1040 LT 1690 1085 LT 2386 1085 LT 2393 1040 LT ST
(001111110) 682 LC 1697 1040 WT pop 0 originOffset 41 add RSS
2393 1040 MT 2393 1040 LT 2400 994 LT 3096 994 LT 3103 1040 LT ST
2393 1040 MT 2393 1040 LT 2400 1085 LT 3096 1085 LT 3103 1040 LT ST
(001110011) 682 LC 2407 1040 WT pop 0 originOffset 41 add RSS
3103 1040 MT 3103 1040 LT 3110 994 LT 5226 994 LT 5233 1040 LT ST
3103 1040 MT 3103 1040 LT 3110 1085 LT 5226 1085 LT 5233 1040 LT ST
(001100101) 2102 LC 3117 1040 WT pop 0 originOffset 41 add RSS
5233 1040 MT 5233 1040 LT 5240 994 LT 5936 994 LT 5943 1040 LT ST
5233 1040 MT 5233 1040 LT 5240 1085 LT 5936 1085 LT 5943 1040 LT ST
(001000110) 682 LC 5247 1040 WT pop 0 originOffset 41 add RSS
5943 1040 MT 5943 1040 LT 5950 994 LT 6298 994 LT ST
5943 1040 MT 5943 1040 LT 5950 1085 LT 6298 1085 LT ST
(000100101) 327 LC 5957 1040 WT pop 0 originOffset 41 add RSS
% draw footer
(Entity:tb_iir_wv  Architecture:  Date: Sun Nov 15 11:36:04 AM CET 2020   Row: 1 Page: 1) 9999 LC 300 4799 WT TSW RSS
grestore
showpage
%%EOF
